{
    "WPLANG": "de_DE",
    "active_plugins": "a:3:{i:0;s:26:\"talk_to_composer\/index.php\";i:1;s:33:\"w3-total-cache\/w3-total-cache.php\";i:2;s:17:\"wp-cfm\/wp-cfm.php\";}",
    "admin_email": "andreas@heigl.org",
    "avatar_default": "mystery",
    "avatar_rating": "G",
    "blacklist_keys": "",
    "blog_charset": "UTF-8",
    "blog_public": "1",
    "blogdescription": "That&#039;s about testing",
    "blogname": "WP-Test",
    "can_compress_scripts": "0",
    "category_base": "",
    "category_children": "a:0:{}",
    "close_comments_days_old": "14",
    "close_comments_for_old_posts": "0",
    "comment_max_links": "2",
    "comment_moderation": "0",
    "comment_order": "asc",
    "comment_registration": "0",
    "comment_whitelist": "1",
    "comments_notify": "1",
    "comments_per_page": "50",
    "current_theme": "Sydney",
    "date_format": "j. F Y",
    "default_category": "1",
    "default_comment_status": "open",
    "default_comments_page": "newest",
    "default_email_category": "1",
    "default_link_category": "2",
    "default_ping_status": "open",
    "default_pingback_flag": "1",
    "default_post_format": "0",
    "default_role": "subscriber",
    "duena": "a:51:{s:15:\"g_search_box_id\";s:3:\"yes\";s:16:\"g_breadcrumbs_id\";s:3:\"yes\";s:15:\"g_portfolio_cat\";s:0:\"\";s:12:\"g_author_bio\";s:3:\"yes\";s:18:\"g_author_bio_title\";s:18:\"Welcome to my site\";s:20:\"g_author_bio_message\";s:76:\"Hello, and welcome to my site! I hope you like the place and decide to stay.\";s:27:\"g_author_bio_social_twitter\";s:1:\"#\";s:28:\"g_author_bio_social_facebook\";s:1:\"#\";s:26:\"g_author_bio_social_google\";s:1:\"#\";s:26:\"g_author_bio_social_linked\";s:1:\"#\";s:23:\"g_author_bio_social_rss\";s:1:\"#\";s:9:\"logo_type\";s:9:\"text_logo\";s:7:\"favicon\";s:0:\"\";s:16:\"cs_primary_color\";s:7:\"#FF5B5B\";s:18:\"cs_secondary_color\";s:7:\"#71A08B\";s:8:\"sf_delay\";s:4:\"1000\";s:14:\"sf_f_animation\";s:4:\"show\";s:15:\"sf_sl_animation\";s:4:\"show\";s:8:\"sf_speed\";s:6:\"normal\";s:9:\"sf_arrows\";s:5:\"false\";s:7:\"sl_show\";s:3:\"yes\";s:9:\"sl_effect\";s:4:\"fade\";s:12:\"sl_direction\";s:10:\"horizontal\";s:12:\"sl_slideshow\";s:4:\"true\";s:10:\"sl_control\";s:4:\"true\";s:16:\"sl_direction_nav\";s:4:\"true\";s:6:\"sl_num\";s:1:\"4\";s:11:\"sl_category\";s:0:\"\";s:10:\"sl_as_link\";s:4:\"true\";s:10:\"sl_caption\";s:4:\"hide\";s:13:\"sl_capt_title\";s:4:\"show\";s:11:\"sl_capt_exc\";s:4:\"show\";s:18:\"sl_capt_exc_length\";s:2:\"20\";s:11:\"sl_capt_btn\";s:4:\"show\";s:15:\"sl_capt_btn_txt\";s:9:\"Read more\";s:16:\"blog_sidebar_pos\";s:5:\"right\";s:15:\"post_image_size\";s:6:\"normal\";s:17:\"single_image_size\";s:6:\"normal\";s:9:\"post_meta\";s:4:\"true\";s:12:\"post_excerpt\";s:4:\"true\";s:11:\"post_button\";s:4:\"true\";s:15:\"post_button_txt\";s:9:\"Read More\";s:11:\"post_author\";s:4:\"true\";s:12:\"blog_related\";s:13:\"Related posts\";s:18:\"portfolio_per_page\";s:2:\"12\";s:24:\"portfolio_show_thumbnail\";s:4:\"true\";s:20:\"portfolio_show_title\";s:4:\"true\";s:22:\"portfolio_show_excerpt\";s:4:\"true\";s:19:\"portfolio_show_link\";s:4:\"true\";s:11:\"footer_text\";s:0:\"\";s:11:\"footer_menu\";s:5:\"false\";}",
    "finished_splitting_shared_terms": "1",
    "gmt_offset": "",
    "hack_file": "0",
    "html_type": "text\/html",
    "image_default_align": "",
    "image_default_link_type": "none",
    "image_default_size": "",
    "initial_db_version": "37965",
    "large_size_h": "1024",
    "large_size_w": "1024",
    "link_manager_enabled": "0",
    "links_updated_date_format": "F j, Y g:i a",
    "mailserver_login": "login@example.com",
    "mailserver_pass": "password",
    "mailserver_port": "110",
    "mailserver_url": "mail.example.com",
    "medium_large_size_h": "0",
    "medium_large_size_w": "768",
    "medium_size_h": "300",
    "medium_size_w": "300",
    "moderation_keys": "",
    "moderation_notify": "1",
    "optionsframework": "a:2:{s:2:\"id\";s:5:\"duena\";s:12:\"knownoptions\";a:1:{i:0;s:5:\"duena\";}}",
    "page_comments": "0",
    "page_for_posts": "0",
    "page_on_front": "0",
    "permalink_structure": "",
    "ping_sites": "http:\/\/rpc.pingomatic.com\/",
    "posts_per_page": "10",
    "posts_per_rss": "10",
    "recently_activated": "a:0:{}",
    "recently_edited": "",
    "require_name_email": "1",
    "rss_use_excerpt": "0",
    "show_avatars": "1",
    "show_on_front": "posts",
    "sidebars_widgets": "a:6:{s:19:\"wp_inactive_widgets\";a:0:{}s:9:\"sidebar-1\";a:6:{i:0;s:8:\"search-2\";i:1;s:14:\"recent-posts-2\";i:2;s:17:\"recent-comments-2\";i:3;s:10:\"archives-2\";i:4;s:12:\"categories-2\";i:5;s:6:\"meta-2\";}s:8:\"footer-1\";N;s:8:\"footer-2\";N;s:8:\"footer-3\";N;s:13:\"array_version\";i:3;}",
    "site_icon": "0",
    "start_of_week": "1",
    "sticky_posts": "a:0:{}",
    "stylesheet": "sydney",
    "tag_base": "",
    "template": "sydney",
    "theme_mods_duena": "a:3:{i:0;b:0;s:16:\"background_color\";s:6:\"a5a5a5\";s:16:\"sidebars_widgets\";a:2:{s:4:\"time\";i:1472675765;s:4:\"data\";a:2:{s:19:\"wp_inactive_widgets\";a:0:{}s:9:\"sidebar-1\";a:6:{i:0;s:8:\"search-2\";i:1;s:14:\"recent-posts-2\";i:2;s:17:\"recent-comments-2\";i:3;s:10:\"archives-2\";i:4;s:12:\"categories-2\";i:5;s:6:\"meta-2\";}}}}",
    "theme_mods_sydney": "a:1:{i:0;b:0;}",
    "theme_mods_twentyfourteen": "a:1:{s:16:\"sidebars_widgets\";a:2:{s:4:\"time\";i:1472672160;s:4:\"data\";a:2:{s:19:\"wp_inactive_widgets\";a:0:{}s:9:\"sidebar-1\";a:6:{i:0;s:8:\"search-2\";i:1;s:14:\"recent-posts-2\";i:2;s:17:\"recent-comments-2\";i:3;s:10:\"archives-2\";i:4;s:12:\"categories-2\";i:5;s:6:\"meta-2\";}}}}",
    "theme_switched": "",
    "thread_comments": "1",
    "thread_comments_depth": "5",
    "thumbnail_crop": "1",
    "thumbnail_size_h": "150",
    "thumbnail_size_w": "150",
    "time_format": "H:i",
    "timezone_string": "Europe\/Berlin",
    "uninstall_plugins": "a:1:{s:50:\"vagrant\/themes\/duena\/options\/options-framework.php\";s:31:\"optionsframework_delete_options\";}",
    "upload_path": "",
    "upload_url_path": "",
    "uploads_use_yearmonth_folders": "1",
    "use_balanceTags": "0",
    "use_smilies": "1",
    "use_trackback": "0",
    "users_can_register": "0",
    "w3tc_request_data": "",
    "widget_archives": "a:2:{i:2;a:3:{s:5:\"title\";s:0:\"\";s:5:\"count\";i:0;s:8:\"dropdown\";i:0;}s:12:\"_multiwidget\";i:1;}",
    "widget_calendar": "a:1:{s:12:\"_multiwidget\";i:1;}",
    "widget_categories": "a:2:{i:2;a:4:{s:5:\"title\";s:0:\"\";s:5:\"count\";i:0;s:12:\"hierarchical\";i:0;s:8:\"dropdown\";i:0;}s:12:\"_multiwidget\";i:1;}",
    "widget_meta": "a:2:{i:2;a:1:{s:5:\"title\";s:0:\"\";}s:12:\"_multiwidget\";i:1;}",
    "widget_nav_menu": "a:1:{s:12:\"_multiwidget\";i:1;}",
    "widget_pages": "a:1:{s:12:\"_multiwidget\";i:1;}",
    "widget_recent-comments": "a:2:{i:2;a:2:{s:5:\"title\";s:0:\"\";s:6:\"number\";i:5;}s:12:\"_multiwidget\";i:1;}",
    "widget_recent-posts": "a:2:{i:2;a:2:{s:5:\"title\";s:0:\"\";s:6:\"number\";i:5;}s:12:\"_multiwidget\";i:1;}",
    "widget_rss": "a:2:{i:1;a:0:{}s:12:\"_multiwidget\";i:1;}",
    "widget_search": "a:2:{i:2;a:1:{s:5:\"title\";s:0:\"\";}s:12:\"_multiwidget\";i:1;}",
    "widget_tag_cloud": "a:1:{s:12:\"_multiwidget\";i:1;}",
    "widget_text": "a:2:{i:1;a:0:{}s:12:\"_multiwidget\";i:1;}",
    "widget_widget_twentyfourteen_ephemera": "a:1:{s:12:\"_multiwidget\";i:1;}",
    "wp_user_roles": "a:5:{s:13:\"administrator\";a:2:{s:4:\"name\";s:13:\"Administrator\";s:12:\"capabilities\";a:61:{s:13:\"switch_themes\";b:1;s:11:\"edit_themes\";b:1;s:16:\"activate_plugins\";b:1;s:12:\"edit_plugins\";b:1;s:10:\"edit_users\";b:1;s:10:\"edit_files\";b:1;s:14:\"manage_options\";b:1;s:17:\"moderate_comments\";b:1;s:17:\"manage_categories\";b:1;s:12:\"manage_links\";b:1;s:12:\"upload_files\";b:1;s:6:\"import\";b:1;s:15:\"unfiltered_html\";b:1;s:10:\"edit_posts\";b:1;s:17:\"edit_others_posts\";b:1;s:20:\"edit_published_posts\";b:1;s:13:\"publish_posts\";b:1;s:10:\"edit_pages\";b:1;s:4:\"read\";b:1;s:8:\"level_10\";b:1;s:7:\"level_9\";b:1;s:7:\"level_8\";b:1;s:7:\"level_7\";b:1;s:7:\"level_6\";b:1;s:7:\"level_5\";b:1;s:7:\"level_4\";b:1;s:7:\"level_3\";b:1;s:7:\"level_2\";b:1;s:7:\"level_1\";b:1;s:7:\"level_0\";b:1;s:17:\"edit_others_pages\";b:1;s:20:\"edit_published_pages\";b:1;s:13:\"publish_pages\";b:1;s:12:\"delete_pages\";b:1;s:19:\"delete_others_pages\";b:1;s:22:\"delete_published_pages\";b:1;s:12:\"delete_posts\";b:1;s:19:\"delete_others_posts\";b:1;s:22:\"delete_published_posts\";b:1;s:20:\"delete_private_posts\";b:1;s:18:\"edit_private_posts\";b:1;s:18:\"read_private_posts\";b:1;s:20:\"delete_private_pages\";b:1;s:18:\"edit_private_pages\";b:1;s:18:\"read_private_pages\";b:1;s:12:\"delete_users\";b:1;s:12:\"create_users\";b:1;s:17:\"unfiltered_upload\";b:1;s:14:\"edit_dashboard\";b:1;s:14:\"update_plugins\";b:1;s:14:\"delete_plugins\";b:1;s:15:\"install_plugins\";b:1;s:13:\"update_themes\";b:1;s:14:\"install_themes\";b:1;s:11:\"update_core\";b:1;s:10:\"list_users\";b:1;s:12:\"remove_users\";b:1;s:13:\"promote_users\";b:1;s:18:\"edit_theme_options\";b:1;s:13:\"delete_themes\";b:1;s:6:\"export\";b:1;}}s:6:\"editor\";a:2:{s:4:\"name\";s:6:\"Editor\";s:12:\"capabilities\";a:34:{s:17:\"moderate_comments\";b:1;s:17:\"manage_categories\";b:1;s:12:\"manage_links\";b:1;s:12:\"upload_files\";b:1;s:15:\"unfiltered_html\";b:1;s:10:\"edit_posts\";b:1;s:17:\"edit_others_posts\";b:1;s:20:\"edit_published_posts\";b:1;s:13:\"publish_posts\";b:1;s:10:\"edit_pages\";b:1;s:4:\"read\";b:1;s:7:\"level_7\";b:1;s:7:\"level_6\";b:1;s:7:\"level_5\";b:1;s:7:\"level_4\";b:1;s:7:\"level_3\";b:1;s:7:\"level_2\";b:1;s:7:\"level_1\";b:1;s:7:\"level_0\";b:1;s:17:\"edit_others_pages\";b:1;s:20:\"edit_published_pages\";b:1;s:13:\"publish_pages\";b:1;s:12:\"delete_pages\";b:1;s:19:\"delete_others_pages\";b:1;s:22:\"delete_published_pages\";b:1;s:12:\"delete_posts\";b:1;s:19:\"delete_others_posts\";b:1;s:22:\"delete_published_posts\";b:1;s:20:\"delete_private_posts\";b:1;s:18:\"edit_private_posts\";b:1;s:18:\"read_private_posts\";b:1;s:20:\"delete_private_pages\";b:1;s:18:\"edit_private_pages\";b:1;s:18:\"read_private_pages\";b:1;}}s:6:\"author\";a:2:{s:4:\"name\";s:6:\"Author\";s:12:\"capabilities\";a:10:{s:12:\"upload_files\";b:1;s:10:\"edit_posts\";b:1;s:20:\"edit_published_posts\";b:1;s:13:\"publish_posts\";b:1;s:4:\"read\";b:1;s:7:\"level_2\";b:1;s:7:\"level_1\";b:1;s:7:\"level_0\";b:1;s:12:\"delete_posts\";b:1;s:22:\"delete_published_posts\";b:1;}}s:11:\"contributor\";a:2:{s:4:\"name\";s:11:\"Contributor\";s:12:\"capabilities\";a:5:{s:10:\"edit_posts\";b:1;s:4:\"read\";b:1;s:7:\"level_1\";b:1;s:7:\"level_0\";b:1;s:12:\"delete_posts\";b:1;}}s:10:\"subscriber\";a:2:{s:4:\"name\";s:10:\"Subscriber\";s:12:\"capabilities\";a:2:{s:4:\"read\";b:1;s:7:\"level_0\";b:1;}}}",
    "wpcfm_settings": "{\"bundles\":[{\"label\":\"complete\",\"name\":\"complete\",\"config\":[\"WPLANG\",\"active_plugins\",\"admin_email\",\"avatar_default\",\"avatar_rating\",\"blacklist_keys\",\"blog_charset\",\"blog_public\",\"blogdescription\",\"blogname\",\"can_compress_scripts\",\"category_base\",\"category_children\",\"close_comments_days_old\",\"close_comments_for_old_posts\",\"comment_max_links\",\"comment_moderation\",\"comment_order\",\"comment_registration\",\"comment_whitelist\",\"comments_notify\",\"comments_per_page\",\"current_theme\",\"date_format\",\"default_category\",\"default_comment_status\",\"default_comments_page\",\"default_email_category\",\"default_link_category\",\"default_ping_status\",\"default_pingback_flag\",\"default_post_format\",\"default_role\",\"duena\",\"finished_splitting_shared_terms\",\"gmt_offset\",\"hack_file\",\"html_type\",\"image_default_align\",\"image_default_link_type\",\"image_default_size\",\"initial_db_version\",\"large_size_h\",\"large_size_w\",\"link_manager_enabled\",\"links_updated_date_format\",\"mailserver_login\",\"mailserver_pass\",\"mailserver_port\",\"mailserver_url\",\"medium_large_size_h\",\"medium_large_size_w\",\"medium_size_h\",\"medium_size_w\",\"moderation_keys\",\"moderation_notify\",\"optionsframework\",\"page_comments\",\"page_for_posts\",\"page_on_front\",\"permalink_structure\",\"ping_sites\",\"posts_per_page\",\"posts_per_rss\",\"recently_activated\",\"recently_edited\",\"require_name_email\",\"rss_use_excerpt\",\"show_avatars\",\"show_on_front\",\"sidebars_widgets\",\"site_icon\",\"start_of_week\",\"sticky_posts\",\"stylesheet\",\"tag_base\",\"template\",\"theme_mods_duena\",\"theme_mods_sydney\",\"theme_mods_twentyfourteen\",\"theme_switched\",\"thread_comments\",\"thread_comments_depth\",\"thumbnail_crop\",\"thumbnail_size_h\",\"thumbnail_size_w\",\"time_format\",\"timezone_string\",\"uninstall_plugins\",\"upload_path\",\"upload_url_path\",\"uploads_use_yearmonth_folders\",\"use_balanceTags\",\"use_smilies\",\"use_trackback\",\"users_can_register\",\"w3tc_request_data\",\"widget_archives\",\"widget_calendar\",\"widget_categories\",\"widget_meta\",\"widget_nav_menu\",\"widget_pages\",\"widget_recent-comments\",\"widget_recent-posts\",\"widget_rss\",\"widget_search\",\"widget_tag_cloud\",\"widget_text\",\"widget_widget_twentyfourteen_ephemera\",\"wp_user_roles\",\"wpcfm_settings\",\"tax\/category\",\"tax\/link_category\",\"tax\/nav_menu\",\"tax\/post_format\",\"tax\/post_tag\"]}]}",
    "tax\/category": "[{\"term_id\":2,\"name\":\"Testkategorie\",\"slug\":\"test\",\"description\":\"Testeintrag\",\"parent\":0},{\"term_id\":1,\"name\":\"Uncategorized\",\"slug\":\"uncategorized\",\"description\":\"\",\"parent\":0}]",
    "tax\/post_tag": "[]",
    "tax\/nav_menu": "[]",
    "tax\/link_category": "[]",
    "tax\/post_format": "[]",
    ".label": "complete"
}